Add Plot Element — add_type • certeplot2
…
  print(df2)
  
  df2 |> 
    plot2(type = "c", colour = "certeroze4") |> 
    # add the error bars, simply by referencing the lower and upper values
    add_errorbar(error1, error2)
}
#> Loading required package: dplyr
#> # A tibble: 50 × 4
#>    var_1 var_2 error1 error2
#>    <int> <dbl>  <dbl>  <dbl>
#>  1     1 155.   140.   171. 
#>  2     2 139.   125.   153. 
#>  3     3  73.7   66.3   81.1
#>  4     4  92.8   83.5  102. 
#>  5     5  89.0   80.1   97.9
#>  6     6  60.8   54.8   66.9
#>  7     7 141.   127.   155. 
#>  8     8  68.7   61.8   75.6
#>  9     9 101.    91.3  112. 
#> 10    10  63.6   57.2   69.9
#> # ℹ 40 more rows
…
