A Gentle Introduction to `plot2()`: Enhancing Your `ggplot2` Workflow • certeplot2
…
Aggregations Made Easy

Suppose you want to count the number of patients admitted to each
hospital. With plot2(), there’s no need to pre-calculate
these counts; you can simply use n() directly within the
function:

# included data set:
admitted_patients
#> # A tibble: 250 × 7
#>    date       patient_id gender   age age_group hospital ward   
#>    <date>          <dbl> <chr>  <dbl> <ord>     <fct>    <chr>  
#>  1 2002-01-14          1 M         78 75+       D        Non-ICU
#>  2 2002-03-17          2 M         78 75+       C        Non-ICU
#>  3 2002-04-08          3 M         78 75+       A        ICU    
#>  4 2002-04-14          4 M         72 55-74     C        Non-ICU
#>  5 2002-05-07          5 M         83 75+       C        Non-ICU
#>  6 2002-05-16          6 F         65 55-74     B        ICU    
#>  7 2002-05-16          7 M         47 25-54     D        Non-ICU
#>  8 2002-06-18          8 M         30 25-54     B        ICU    
#>  9 2002-06-23          9 M         82 75+       D        Non-ICU
#> 10 2002-06-23          9 M         82 75+       D        Non-ICU
#> # ℹ 240 more rows
…
